// Jest Snapshot v1, https://goo.gl/fbAQLP

exports[`(Component) TableHeaderRow renders with filterable columns correctly 1`] = `
<tr>
  <TableHeaderCell
    display="Name"
    displayClass=""
    key="header0"
    onClick={[Function]}
    sortOptions={
      Object {
        "isSortColumn": false,
        "isSortable": true,
        "onSort": [Function],
      }
    }
  />
  <TableHeaderCell
    display="Actions"
    displayClass=""
    key="headerActions"
    onClick={[Function]}
    sortOptions={
      Object {
        "isSortColumn": false,
        "isSortable": false,
        "onSort": [Function],
      }
    }
  />
</tr>
`;

exports[`(Component) TableHeaderRow renders without visible columns correctly 1`] = `
<tr>
  <TableHeaderCell
    display="Actions"
    displayClass=""
    key="headerActions"
    onClick={[Function]}
    sortOptions={
      Object {
        "isSortColumn": false,
        "isSortable": false,
        "onSort": [Function],
      }
    }
  />
</tr>
`;
